{"name":"Big Campaign","type":null}
{"name":"Huge Campaign","type":null}
{"name":"Enormous Campaign","type":null}
{"name":"Gigantinc Campaign","type":null}
{"name":"Supercolossal Campaign","type":null}
{"name":"Little Campaign","type":null}
{"name":"Small Email Campaign","type":null}